%YAML 1.1
%TAG !u! tag:unity3d.com,2011:
--- !u!114 &11400000
MonoBehaviour:
  m_ObjectHideFlags: 0
  m_CorrespondingSourceObject: {fileID: 0}
  m_PrefabInstance: {fileID: 0}
  m_PrefabAsset: {fileID: 0}
  m_GameObject: {fileID: 0}
  m_Enabled: 1
  m_EditorHideFlags: 0
  m_Script: {fileID: 11500000, guid: 51470e320c8934203b2e783808064230, type: 3}
  m_Name: JordanLevel
  m_EditorClassIdentifier: 
  LevelName: The TN Factory
  LevelAuthor: Jordan Lane
  LevelStory: I Found Myself in a Mysterious Shoe Factory...
  SceneName: JordanScene
  LevelColour: {r: 0.18778922, g: 0.18850122, b: 0.18867922, a: 1}
  TextColour: {r: 0.972549, g: 0.7054286, b: 0.02352939, a: 1}
  LevelScores:
    PlayCount: 35
    GamePlayTime: 122
    GameHealthGained: 206.423
    GameFuelGained: 206.423
    GameTimeGained: 0
    GameBonusScore: 0
    PBPlayTime: 169
    PBHealthGained: 286.15723
    PBFuelGained: 306.15723
    PBTimeGained: 0
    PBBonusScore: 0
    PersonalBest: 5923
