%YAML 1.1
%TAG !u! tag:unity3d.com,2011:
--- !u!114 &11400000
MonoBehaviour:
  m_ObjectHideFlags: 0
  m_CorrespondingSourceObject: {fileID: 0}
  m_PrefabInstance: {fileID: 0}
  m_PrefabAsset: {fileID: 0}
  m_GameObject: {fileID: 0}
  m_Enabled: 1
  m_EditorHideFlags: 0
  m_Script: {fileID: 11500000, guid: 51470e320c8934203b2e783808064230, type: 3}
  m_Name: SteveLevel
  m_EditorClassIdentifier: 
  LevelName: Moon Fruit
  LevelAuthor: DumbleSteve
  LevelStory: 'I Found Myself in an Eerie Forest..

    I was a Shadow of Myself.

    Time
    was Running Out - I had to Stay Alive!

    My jetpacks needed Fuel.

    What
    were those Strange Fruit?'
  SceneName: SteveScene
  LevelColour: {r: 0.62793696, g: 0.87679493, b: 0.9716981, a: 1}
  TextColour: {r: 0, g: 0.5036071, b: 0.5188679, a: 1}
  LevelScores:
    PlayCount: 1
    GamePlayTime: 0
    GameHealthGained: 0
    GameFuelGained: 0
    GameTimeGained: 0
    GameBonusScore: 0
    PBPlayTime: 0
    PBHealthGained: 0
    PBFuelGained: 0
    PBTimeGained: 0
    PBBonusScore: 0
    PersonalBest: 0
