%YAML 1.1
%TAG !u! tag:unity3d.com,2011:
--- !u!114 &11400000
MonoBehaviour:
  m_ObjectHideFlags: 0
  m_CorrespondingSourceObject: {fileID: 0}
  m_PrefabInstance: {fileID: 0}
  m_PrefabAsset: {fileID: 0}
  m_GameObject: {fileID: 0}
  m_Enabled: 1
  m_EditorHideFlags: 0
  m_Script: {fileID: 11500000, guid: 1e52767d1a69c4925b9db762e2a0e9d8, type: 3}
  m_Name: PlayerProfile
  m_EditorClassIdentifier: 
  PlayerName: DumbleSteve
  SchoolName: Whole Self
