%YAML 1.1
%TAG !u! tag:unity3d.com,2011:
--- !u!1045 &1
EditorBuildSettings:
  m_ObjectHideFlags: 0
  serializedVersion: 2
  m_Scenes:
  - enabled: 0
    path: 
    guid: 00000000000000000000000000000000
  - enabled: 1
    path: Assets/Scenes/IntroScene.unity
    guid: 7ed9351d819674a8fbaed66269483607
  - enabled: 1
    path: Assets/Scenes/SteveScene.unity
    guid: 9fc0d4010bbf28b4594072e72b8655ab
  - enabled: 1
    path: Assets/Scenes/JaiScene.unity
    guid: a001aff2086764ee7a550d70f302aa46
  - enabled: 1
    path: Assets/Scenes/JordanScene.unity
    guid: 5a16facf200854a5ba1c0723bb857c82
  - enabled: 1
    path: Assets/Scenes/ZacScene.unity
    guid: e87ba623d768b4b039bd6ef9ce2df0fb
  - enabled: 1
    path: Assets/Scenes/KaiScene.unity
    guid: c29d67acb881041a194ab32f203002ee
  - enabled: 1
    path: Assets/Scenes/LukeScene.unity
    guid: e7ed7c5d12c1f4a6fbb0b6e3cb5e4931
  - enabled: 1
    path: Assets/Scenes/KayleeScene.unity
    guid: e53b1ad6dc3b14742800426bdd85e73e
  - enabled: 0
    path: 
    guid: 00000000000000000000000000000000
  - enabled: 0
    path: 
    guid: 00000000000000000000000000000000
  m_configObjects: {}
